<svg width="50" height="50" viewBox="0 0 50 50" fill="none" xmlns="http://www.w3.org/2000/svg">
<g clip-path="url(#clip0_2_13578)">
<path d="M24.9972 49.9964C38.8044 49.9964 49.9973 38.8034 49.9973 24.9962C49.9973 11.189 38.8044 -0.00390625 24.9972 -0.00390625C11.19 -0.00390625 -0.00292969 11.189 -0.00292969 24.9962C-0.00292969 38.8034 11.19 49.9964 24.9972 49.9964Z" fill="#3FBDCF"/>
<path d="M13.5477 14C12.222 15.1417 11.2189 16.611 10.6384 18.2615C10.058 19.912 9.92049 21.6858 10.2397 23.406L12.2037 23.044C11.9484 21.6675 12.059 20.248 12.5244 18.9276C12.9898 17.6072 13.7937 16.4322 14.8557 15.52L13.5477 14ZM25.9957 15.852L21.6677 18.352C20.5216 19.0166 19.6854 20.1081 19.342 21.3878C18.9987 22.6674 19.1762 24.0309 19.8357 25.18L24.8317 33.832C25.4943 34.9834 26.5862 35.8253 27.8683 36.1732C29.1504 36.5211 30.5181 36.3466 31.6717 35.688L35.9997 33.188L32.9997 27.988L30.4217 29.476C29.8017 29.834 29.6817 29.692 29.4657 29.544C29.3244 29.4406 29.2037 29.3117 29.1097 29.164L29.0977 29.142L26.0577 23.876L26.0517 23.856C26.0517 23.856 25.9017 23.588 25.8757 23.308C25.8497 23.03 25.7757 22.896 26.3257 22.594H26.3317L28.9997 21.054L27.4997 18.454L25.9957 15.852ZM15.9417 17.612C14.8814 18.9534 14.3492 20.6368 14.4457 22.344L16.4417 22.234C16.3721 21.0143 16.7513 19.8113 17.5077 18.852L15.9417 17.612ZM25.2657 18.578V18.582L25.7657 19.454L26.2697 20.32L25.3557 20.848H25.3517C24.2057 21.488 23.8097 22.682 23.8877 23.496C23.9657 24.312 24.3477 24.902 24.3477 24.902L27.3317 30.07C27.3317 30.07 27.6477 30.714 28.3317 31.184C29.0177 31.654 30.2417 31.876 31.4137 31.204H31.4177L32.2657 30.712L33.2697 32.45L30.6717 33.946C30.3296 34.145 29.9513 34.2739 29.5589 34.3254C29.1664 34.3769 28.7677 34.3498 28.3858 34.2458C28.0039 34.1417 27.6465 33.9628 27.3344 33.7194C27.0223 33.476 26.7617 33.173 26.5677 32.828H26.5637L21.5717 24.176C21.3709 23.8359 21.2399 23.4592 21.1864 23.0679C21.1328 22.6766 21.1578 22.2786 21.2598 21.897C21.3618 21.5155 21.5389 21.1581 21.7807 20.8458C22.0224 20.5334 22.324 20.2724 22.6677 20.078L25.2677 18.578H25.2657Z" fill="white"/>
</g>
<defs>
<clipPath id="clip0_2_13578">
<rect width="50" height="50" fill="white"/>
</clipPath>
</defs>
</svg>
