<svg width="131" height="98" viewBox="0 0 131 98" fill="none" xmlns="http://www.w3.org/2000/svg">
<g clip-path="url(#clip0_2_13648)">
<path opacity="0.24" d="M129.521 60.0307C129.302 59.823 129.063 59.6319 128.806 59.4595C129.283 43.1392 127.785 9.24486 127.72 7.77863L127.375 0L81.155 21.3417L47.4456 4.46467L44.6502 5.80716C40.7004 7.70439 6.01065 24.367 4.32435 25.2187L1.49316 26.6395L1.54087 29.7988C1.67682 39.6149 2.35182 97.2329 2.35898 98.0021C2.35898 98.0021 15.785 91.1514 17.9364 90.0337C21.5142 88.1674 26.4801 85.5608 32.6648 82.2881C39.961 78.4235 47.3597 74.4785 51.0162 72.5277C64.3516 78.8339 78.4455 85.6103 80.6661 86.8765C81.716 87.649 83.0512 88.0711 84.4299 88.0664C86.0995 88.0664 87.1847 88.0664 107.27 79.6361C116.906 75.5942 126.533 71.4265 127.654 70.9377C129.524 70.1128 130.704 68.5249 130.895 66.5597C130.938 66.1101 130.936 65.6709 130.936 65.2048C130.936 64.7387 130.936 64.2314 130.979 63.7839C131.05 63.1052 130.957 62.4211 130.706 61.775C130.455 61.1289 130.052 60.5349 129.521 60.0307ZM84.7829 81.3065C83.1777 80.4032 79.142 78.3864 68.3086 73.1979C60.1108 69.2797 51.8844 65.3925 51.8033 65.3615L50.7681 64.8728L49.7664 65.409C36.3952 72.5545 17.1136 82.7913 9.97956 86.4228C9.83406 75.4828 9.30694 37.4414 9.21153 30.4299C14.9359 27.6541 41.8047 14.7448 47.3741 12.0763L81.0048 28.9286L120.179 10.8348C120.577 20.6055 121.803 53.145 120.908 63.9304C120.875 64.3461 121.011 64.7589 121.292 65.0976C121.572 65.4364 121.981 65.6799 122.447 65.7863C111.735 70.4284 89.2956 79.9516 84.7829 81.3065Z" fill="black"/>
<path d="M7.16992 27.7676C8.83953 26.918 47.3861 8.4097 47.3861 8.4097C47.3861 8.4097 81.6822 24.6062 81.7037 23.4473C81.7252 22.2883 122.747 6.69601 122.087 6.32069C121.519 5.9928 123.995 49.4826 122.931 62.4126C122.907 62.6951 125.39 61.4454 125.364 61.697C125.192 63.2994 125.44 64.8048 125.111 64.9491C122.843 65.939 84.9738 82.317 84.325 81.5251C83.6762 80.7332 50.8445 65.2543 50.8445 65.2543C50.8445 65.2543 7.9928 88.1468 7.9928 87.7138C7.9928 87.2807 7.16992 27.7676 7.16992 27.7676Z" fill="#68E1FD"/>
<path d="M6.19889 90.1781L6.18697 88.6129C6.18697 87.9488 5.37124 29.275 5.36409 28.6832L5.35693 27.7676L6.26329 27.3098C7.9329 26.4622 44.941 8.69013 46.5152 7.92505L47.4096 7.49612L81.0833 24.3649L123.778 4.6709L123.899 7.15585C123.973 8.82418 125.609 46.0779 124.891 61.0309C125.032 61.0056 125.175 60.9925 125.318 60.9917C125.577 60.991 125.834 61.0368 126.071 61.1263C126.308 61.2157 126.521 61.3469 126.697 61.5114C126.87 61.6744 127.002 61.8667 127.084 62.0762C127.166 62.2857 127.197 62.5078 127.174 62.7281C127.11 63.3323 127.112 63.9324 127.114 64.4624C127.114 65.6193 127.114 66.7123 125.936 67.2299C124.818 67.7186 115.203 71.8781 105.61 75.9056C86.3163 83.9997 85.1428 84.0018 84.4416 84.0018C84.1869 84.0055 83.9339 83.9651 83.6975 83.8829C83.4612 83.8008 83.2462 83.6785 83.0654 83.5233C81.3218 82.4077 62.8774 73.5959 50.9087 67.9455C48.1443 69.422 39.3955 74.0908 30.673 78.7102C24.5097 81.9767 19.5629 84.5771 15.9733 86.4434C8.78918 90.1781 8.65561 90.1781 8.01638 90.1781H6.19889Z" fill="url(#paint0_linear_2_13648)"/>
<path opacity="0.13" d="M85.1071 39.5098L122.447 23.0823L122.079 6.65479L85.7893 23.4122L85.1071 39.5098ZM7.86621 47.3565L46.8134 32.0962V46.6924L7.86621 65.3698V47.3565Z" fill="white"/>
<path d="M128.016 59.9006C127.66 59.563 127.223 59.2969 126.736 59.1211C127.301 43.273 125.758 8.1558 125.686 6.53491L125.464 1.55469L120.379 3.90147L87.7978 18.9556L81.1075 22.0489L78.8487 20.9167L70.7821 16.8645L61.5229 12.2266L49.1893 6.03998L47.4171 5.15117L45.6283 6.01111C44.0517 6.76794 7.0364 24.5462 5.34055 25.3958L3.52783 26.3238L3.55407 28.1385C3.55407 28.7304 4.36979 87.2248 4.37695 88.062C4.38199 88.889 4.76535 89.6807 5.44329 90.2642C6.12124 90.8476 7.03868 91.1754 7.99523 91.176C9.1091 91.176 9.80557 90.8274 11.8735 89.7902C13.0518 89.1983 14.7357 88.3342 16.8823 87.2186C20.4768 85.3502 25.426 82.7457 31.5964 79.4791C39.5318 75.2764 47.4887 71.0241 50.9448 69.1867C62.5629 74.6763 79.6668 82.8508 81.8993 84.1727C82.5908 84.7106 83.4903 85.0049 84.4204 84.9976C85.5987 84.9976 86.7102 84.9976 106.364 76.7488C115.964 72.7192 125.595 68.5515 126.719 68.0607C127.434 67.7473 128.675 66.943 128.865 65.1015C128.901 64.7282 128.899 64.3426 128.899 63.8971C128.899 63.4022 128.899 62.8392 128.951 62.3113C128.997 61.8754 128.938 61.4359 128.777 61.0209C128.616 60.6059 128.357 60.2244 128.016 59.9006ZM125.104 65.2768C122.891 66.2419 86.7364 81.8816 84.4204 81.8816C84.4012 81.8838 84.3816 81.8824 84.3631 81.8774C84.3446 81.8724 84.3275 81.864 84.3131 81.8527C83.6596 81.0609 50.8327 65.582 50.8327 65.582C50.8327 65.582 8.7871 88.06 7.99523 88.06C7.99523 87.6269 7.17235 28.1117 7.17235 28.1117C8.84196 27.2621 47.3885 8.75384 47.3885 8.75384L59.1211 14.6311L66.9468 18.5493L79.0849 24.6307L81.0454 25.6123L87.8789 22.4572L122.089 6.6607C122.089 6.6607 123.997 49.8226 122.934 62.7526C122.934 62.7815 122.955 62.7939 123 62.7939C123.353 62.7939 124.994 62.004 125.314 62.004C125.35 62.004 125.369 62.0143 125.366 62.037C125.185 63.627 125.433 65.1324 125.104 65.2768Z" fill="white"/>
<path d="M87.7976 18.9475L81.1073 22.0409L78.8485 20.9087C79.367 22.1262 79.4387 23.4522 79.0539 24.7062C78.669 25.9601 77.8464 27.081 76.698 27.9161C75.5497 28.7512 74.1315 29.2598 72.6366 29.3727C71.1418 29.4856 69.6431 29.1973 68.3446 28.547C67.0462 27.8967 66.0112 26.9161 65.3808 25.7389C64.7503 24.5616 64.555 23.2449 64.8214 21.9681C65.0879 20.6914 65.8032 19.5168 66.8698 18.6042C67.9364 17.6917 69.3025 17.0857 70.7819 16.8688L61.5227 12.231C60.6095 12.9422 59.7998 13.7469 59.1113 14.6272C58.3112 15.6541 57.6502 16.7571 57.1412 17.9144C54.7179 23.34 55.4382 29.4442 58.8776 34.445L68.6066 52.05C68.6066 52.05 86.4524 35.2678 87.8692 22.4512C88.0085 21.2851 87.9845 20.1087 87.7976 18.9475Z" fill="url(#paint1_linear_2_13648)"/>
<path d="M0.963601 70.2017C-0.064402 71.6824 -0.577211 73.8745 1.01369 74.9159C1.66245 75.3387 2.54735 75.4727 3.08878 75.9986C3.89973 76.7863 3.5348 78.036 2.93613 78.9578C2.33745 79.8796 1.5265 80.787 1.55751 81.8449C1.61236 83.7009 4.07623 84.6722 6.12985 85.2084C6.71422 85.361 7.32243 85.5156 7.92588 85.4146C8.52932 85.3135 9.04928 84.9671 9.51201 84.6083C11.3202 83.1989 12.7512 81.4656 13.7051 79.5291C14.0939 78.7351 14.3992 77.8319 14.039 77.0276C13.7528 76.3863 13.085 75.9346 12.6079 75.3985C12.0131 74.7297 11.6521 73.9277 11.5675 73.0872C11.483 72.2467 11.6785 71.4029 12.1309 70.6554C12.6079 69.8903 13.3473 69.2675 13.8721 68.5231C15.9257 65.6195 10.8382 64.5472 9.70043 62.5076C8.84416 60.9734 9.58833 59.6041 6.62596 59.1112C4.01422 58.6761 2.86219 59.7299 2.58312 61.9055C2.38993 63.4294 3.4227 64.7926 3.22712 66.2897C3.03153 67.7869 1.81272 68.9768 0.963601 70.2017Z" fill="#68E1FD"/>
<path d="M7.57273 85.8167L8.04976 92.7086C8.10462 93.519 8.43377 94.5645 9.37352 94.5914C10.2489 94.6099 10.6782 93.6695 10.7307 92.9127C10.8953 90.5288 9.81955 88.2336 9.00621 85.9528C8.19287 83.672 7.65621 81.121 8.82494 78.9599C9.15409 78.3536 9.61681 77.6648 9.26619 77.0668C8.90679 78.2274 8.33335 79.3304 7.56796 80.3333L6.37538 73.7878C6.2442 73.062 6.03669 72.2412 5.2949 71.8824L6.24897 78.9083L5.09216 78.7248C4.48633 78.6299 6.66398 81.5459 6.73554 81.6923C7.36999 82.9812 7.47732 84.435 7.57273 85.8167ZM112.055 69.8614C112.365 67.327 115.551 65.8793 116.982 63.6501C117.237 63.2582 117.443 62.8046 117.333 62.3632C117.187 61.7817 116.558 61.4084 116.045 61.0146C113.66 59.1792 113.34 55.6735 115.368 53.5391C116.737 52.0955 119.012 51.1882 119.565 49.3879C119.864 48.4207 119.577 47.402 119.465 46.4059C119.322 45.1459 119.465 43.822 120.209 42.7249C120.954 41.6278 122.335 40.8112 123.787 40.8833C126.065 40.9947 127.568 43.1518 127.637 45.115C127.706 47.0782 126.795 48.9692 126.277 50.8892C126.091 51.5759 125.958 52.2997 126.165 52.9802C126.475 54.0113 127.472 54.7331 128.235 55.5539C130.039 57.4965 130.413 60.7094 128.181 62.2808C126.928 63.1634 124.903 63.6212 124.732 65.0111C124.624 65.8649 125.361 66.6361 126.191 67.1063C127.021 67.5765 127.987 67.8652 128.765 68.3993C130.721 69.7418 130.852 72.633 129.023 74.1054C128.348 74.6457 127.494 74.9901 126.795 75.5057C126.096 76.0212 125.543 76.8214 125.791 77.5844C125.886 77.8772 126.089 78.135 126.17 78.4299C126.346 79.0733 125.879 79.7456 125.244 80.1106C124.61 80.4756 123.832 80.6055 123.081 80.7292C121.378 81.0014 119.315 81.3128 117.834 80.3044C116.353 79.296 117.011 78.401 116.465 77.1162C115.372 74.5302 111.663 73.0681 112.055 69.8614Z" fill="#68E1FD"/>
<path d="M121.166 70.2491C121.131 70.031 121.112 69.8114 121.106 69.5913C121.111 69.507 121.152 69.4273 121.222 69.3682C121.291 69.3091 121.384 69.2749 121.482 69.2726C121.579 69.2702 121.674 69.2999 121.747 69.3555C121.821 69.4112 121.867 69.4888 121.877 69.5727L122.168 73.0372C122.204 73.4497 122.449 73.9982 122.91 73.8931C123.023 73.0612 123.3 72.2522 123.728 71.5009C123.766 71.4336 123.83 71.3802 123.91 71.3504C123.989 71.3207 124.078 71.3165 124.161 71.3387C124.244 71.3609 124.315 71.4079 124.361 71.4713C124.407 71.5348 124.425 71.6104 124.412 71.6844C124.303 72.2907 123.964 72.9032 123.697 73.4868C121.128 79.1702 125.569 85.86 123.127 91.5785C122.931 91.8115 122.576 91.4424 122.53 91.1661C121.93 87.379 121.782 83.5486 122.087 79.7353C122.342 76.5471 121.65 73.4064 121.166 70.2491Z" fill="#68E1FD"/>
<path d="M7.57273 85.8166L8.04976 92.7085C8.10462 93.519 8.43377 94.5645 9.37352 94.5913C10.2489 94.6099 10.6782 93.6695 10.7307 92.9127C10.8953 90.5288 9.81955 88.2335 9.00621 85.9527C8.19287 83.6719 7.65621 81.121 8.82494 78.9598C9.15409 78.3535 9.61681 77.6647 9.26619 77.0667C8.90679 78.2274 8.33336 79.3303 7.56796 80.3332L6.37538 73.7878C6.2442 73.0619 6.03669 72.2411 5.2949 71.8823L6.24897 78.9082L5.09216 78.7247C4.48633 78.6298 6.66398 81.5458 6.73554 81.6922C7.36999 82.9811 7.47732 84.4349 7.57273 85.8166Z" fill="url(#paint2_linear_2_13648)"/>
<path d="M121.166 70.2491C121.131 70.031 121.112 69.8114 121.106 69.5913C121.111 69.507 121.152 69.4273 121.222 69.3682C121.291 69.3091 121.384 69.2749 121.482 69.2726C121.579 69.2702 121.674 69.2999 121.747 69.3556C121.821 69.4112 121.867 69.4888 121.877 69.5727L122.168 73.0372C122.204 73.4497 122.449 73.9982 122.91 73.8931C123.03 73.0014 123.34 72.1367 123.823 71.3421C123.858 71.2836 123.916 71.2375 123.986 71.2117C124.056 71.186 124.134 71.1822 124.207 71.201C124.28 71.2198 124.343 71.2601 124.385 71.3148C124.428 71.3696 124.446 71.4354 124.439 71.5009C124.369 72.1649 123.99 72.8455 123.699 73.4868C121.13 79.1702 125.571 85.86 123.129 91.5785C122.933 91.8115 122.578 91.4424 122.533 91.1661C121.932 87.379 121.782 83.5487 122.087 79.7353C122.342 76.5471 121.65 73.4064 121.166 70.2491Z" fill="url(#paint3_linear_2_13648)"/>
<path d="M84.2224 16.0667C82.3357 11.3112 78.1784 7.09814 69.339 7.33735C60.3303 7.58069 55.9821 11.8742 53.9166 16.4791C51.4933 21.9048 52.2136 28.0109 55.653 33.0097L68.6068 52.0459L80.3775 34.1604C83.2445 29.0606 86.6767 22.243 84.2224 16.0667ZM68.7761 27.9594C67.333 27.9594 65.9222 27.5894 64.7223 26.8961C63.5224 26.2028 62.5872 25.2175 62.0351 24.0647C61.4829 22.9119 61.3386 21.6434 61.6203 20.4197C61.902 19.1959 62.5971 18.0719 63.6178 17.1897C64.6384 16.3076 65.9387 15.707 67.3542 15.4638C68.7696 15.2206 70.2367 15.3458 71.5699 15.8236C72.9031 16.3014 74.0424 17.1102 74.8438 18.1479C75.6453 19.1856 76.0728 20.4054 76.0723 21.6532C76.0723 22.4815 75.8836 23.3017 75.5169 24.0669C75.1502 24.8322 74.6127 25.5274 73.9352 26.1131C73.2576 26.6987 72.4533 27.1631 71.5681 27.4799C70.6829 27.7967 69.7342 27.9597 68.7761 27.9594Z" fill="#68E1FD"/>
<path opacity="0.2" d="M60.2157 16.479C62.6176 12.5382 65.7851 8.43643 73.0956 7.527C71.8596 7.36082 70.6081 7.29729 69.3581 7.33727C60.3493 7.58061 56.0012 11.8741 53.9356 16.479C51.5123 21.9047 52.2326 28.0109 55.672 33.0096L68.6258 52.0458C68.6258 52.0458 53.2105 27.9593 60.2157 16.479Z" fill="white"/>
<path opacity="0.13" d="M67.7695 21.6531C67.7695 20.4619 68.1591 19.295 68.8935 18.2871C69.6279 17.2793 70.677 16.4715 71.9197 15.9573C70.8075 15.4991 69.5793 15.2918 68.3495 15.3548C67.1197 15.4178 65.9283 15.749 64.8866 16.3176C63.8448 16.8861 62.9865 17.6735 62.3916 18.6063C61.7968 19.5391 61.4849 20.5869 61.4849 21.652C61.4849 22.7172 61.7968 23.765 62.3916 24.6978C62.9865 25.6306 63.8448 26.4179 64.8866 26.9865C65.9283 27.555 67.1197 27.8863 68.3495 27.9493C69.5793 28.0123 70.8075 27.805 71.9197 27.3468C70.677 26.8331 69.6278 26.0258 68.8934 25.0182C68.159 24.0107 67.7694 22.844 67.7695 21.6531Z" fill="white"/>
<path d="M47.4073 8.7583C47.2491 8.7583 47.0974 8.81262 46.9856 8.9093C46.8738 9.00599 46.811 9.13712 46.811 9.27385V30.9765C43.1545 32.319 19.5916 41.0008 17.6286 42.7207C17.5348 42.8203 17.4873 42.9465 17.4955 43.0747C17.5037 43.2029 17.567 43.3239 17.6729 43.4139C17.7788 43.504 17.9198 43.5566 18.0682 43.5615C18.2166 43.5664 18.3618 43.5232 18.4753 43.4404C19.8396 42.2443 35.906 36.0969 46.8086 32.0983V57.5253C46.8086 57.662 46.8714 57.7931 46.9832 57.8898C47.0951 57.9865 47.2467 58.0408 47.4049 58.0408C47.563 58.0408 47.7147 57.9865 47.8265 57.8898C47.9383 57.7931 48.0012 57.662 48.0012 57.5253V9.26973C48.0005 9.1339 47.9377 9.00382 47.8264 8.90797C47.7151 8.81212 47.5644 8.7583 47.4073 8.7583Z" fill="url(#paint4_linear_2_13648)"/>
<path d="M106.285 50.0517C106.209 49.9315 106.081 49.8423 105.929 49.8037C105.777 49.765 105.613 49.78 105.474 49.8455L85.1072 59.4986V39.5097C85.1072 39.373 85.0444 39.2418 84.9326 39.1451C84.8207 39.0485 84.6691 38.9941 84.5109 38.9941C84.3528 38.9941 84.2011 39.0485 84.0893 39.1451C83.9775 39.2418 83.9146 39.373 83.9146 39.5097V59.4739C81.9636 58.4861 77.1193 56.0403 72.3085 53.6317C68.6687 51.8107 65.7636 50.3693 63.6694 49.3464C62.4244 48.7381 61.456 48.2741 60.7882 47.9627C59.6147 47.4162 59.2187 47.2326 58.88 47.6554C58.8037 47.7503 58.5962 48.0926 59.1042 48.439C59.2198 48.5164 59.3638 48.5552 59.5097 48.5483C61.7351 49.5031 74.9226 56.1166 83.9099 60.6679V81.2342C83.9099 81.371 83.9727 81.5021 84.0845 81.5988C84.1963 81.6955 84.348 81.7498 84.5062 81.7498C84.6643 81.7498 84.816 81.6955 84.9278 81.5988C85.0396 81.5021 85.1024 81.371 85.1024 81.2342V60.6782L106.044 50.7528C106.184 50.6874 106.287 50.5768 106.332 50.4453C106.378 50.3139 106.361 50.1723 106.285 50.0517Z" fill="url(#paint5_linear_2_13648)"/>
<path opacity="0.24" d="M7.1626 28.1038L46.9041 8.99951L46.8135 17.4484L7.26516 35.4885L7.1626 28.1038Z" fill="white"/>
<path opacity="0.13" d="M48.0059 47.3564L83.9144 63.5117V81.2343L49.7733 65.4028L48.0059 47.3564Z" fill="white"/>
<path d="M85.062 43.5947C85.062 43.5947 85.7394 43.9247 87.1705 43.8113" stroke="white" stroke-width="5" stroke-miterlimit="10"/>
<path d="M91.3255 42.6524C92.8133 41.979 94.2237 41.185 95.5377 40.2809C102.791 35.3976 113.753 34.3974 116.72 36.8411C133.099 50.3609 100.785 74.2041 85.0621 74.9465C76.7498 75.3383 71.6479 62.2536 69.6182 55.6917" stroke="white" stroke-width="5" stroke-miterlimit="10" stroke-dasharray="18.4 18.4"/>
<path d="M69.0766 53.8564C68.7617 52.7283 68.5995 52.0457 68.5995 52.0457L67.519 50.4517" stroke="white" stroke-width="5" stroke-miterlimit="10"/>
<path d="M65.3845 47.3109L63.2546 44.1784C57.8999 36.3111 48.0039 39.5096 48.0039 39.5096C48.0039 39.5096 37.7167 45.8467 35.9016 57.4363C34.0865 69.0259 21.0588 73.3771 17.4572 70.9437C13.8556 68.5103 7.89746 41.3161 20.5913 33.3993C28.9274 28.1963 36.0495 30.7308 39.954 33.0817" stroke="white" stroke-width="5" stroke-miterlimit="10" stroke-dasharray="17.64 17.64"/>
<path d="M41.6113 34.1953C42.1578 34.5954 42.6718 35.0274 43.1498 35.4883" stroke="white" stroke-width="5" stroke-miterlimit="10"/>
</g>
<defs>
<linearGradient id="paint0_linear_2_13648" x1="66.479" y1="17.1555" x2="65.5821" y2="170.096" gradientUnits="userSpaceOnUse">
<stop stop-opacity="0"/>
<stop offset="0.97"/>
</linearGradient>
<linearGradient id="paint1_linear_2_13648" x1="74.4527" y1="11.7711" x2="63.067" y2="75.1245" gradientUnits="userSpaceOnUse">
<stop stop-opacity="0"/>
<stop offset="0.97"/>
</linearGradient>
<linearGradient id="paint2_linear_2_13648" x1="6.09155" y1="67.6404" x2="9.21097" y2="107.669" gradientUnits="userSpaceOnUse">
<stop stop-opacity="0"/>
<stop offset="0.97"/>
</linearGradient>
<linearGradient id="paint3_linear_2_13648" x1="122.566" y1="63.1201" x2="124.776" y2="168.811" gradientUnits="userSpaceOnUse">
<stop stop-opacity="0"/>
<stop offset="0.97"/>
</linearGradient>
<linearGradient id="paint4_linear_2_13648" x1="34.0027" y1="83.2595" x2="32.5976" y2="-1.05744" gradientUnits="userSpaceOnUse">
<stop stop-opacity="0"/>
<stop offset="0.83" stop-opacity="0.47"/>
<stop offset="0.97"/>
</linearGradient>
<linearGradient id="paint5_linear_2_13648" x1="83.2659" y1="25.2413" x2="80.8549" y2="135.694" gradientUnits="userSpaceOnUse">
<stop stop-opacity="0"/>
<stop offset="0.9" stop-opacity="0.83"/>
<stop offset="0.97"/>
</linearGradient>
<clipPath id="clip0_2_13648">
<rect width="131" height="98" rx="10" fill="white"/>
</clipPath>
</defs>
</svg>
